…
trashwheel_df = 
  read_xlsx("./data/Trash-Wheel-Collection-Totals-8-6-19.xlsx",
            sheet = "Mr. Trash Wheel", 
            range = cell_cols("A:N")) %>% 
  janitor::clean_names() %>% 
  drop_na(dumpster) %>% 
  mutate(
    sports_balls = round(sports_balls),
    sports_balls = as.integer(sports_balls)
    )

trashwheel_df
```

    # A tibble: 344 x 14
       dumpster month  year date                weight_tons volume_cubic_ya~
          <dbl> <chr> <dbl> <dttm>                    <dbl>            <dbl>
     1        1 May    2014 2014-05-16 00:00:00        4.31               18
     2        2 May    2014 2014-05-16 00:00:00        2.74               13
     3        3 May    2014 2014-05-16 00:00:00        3.45               15
     4        4 May    2014 2014-05-17 00:00:00        3.1                15
     5        5 May    2014 2014-05-17 00:00:00        4.06               18
     6        6 May    2014 2014-05-20 00:00:00        2.71               13
     7        7 May    2014 2014-05-21 00:00:00        1.91                8
     8        8 May    2014 2014-05-28 00:00:00        3.7                16
     9        9 June   2014 2014-06-05 00:00:00        2.52               14
    10       10 June   2014 2014-06-11 00:00:00        3.76               18
    # ... with 334 more rows, and 8 more variables: plastic_bottles <dbl>,
    #   polystyrene <dbl>, cigarette_butts <dbl>, glass_bottles <dbl>,
    #   grocery_bags <dbl>, chip_bags <dbl>, sports_balls <int>,
    #   homes_powered <dbl>
…
month_df = 
  tibble(month = 1:12,
         month_name = month.name)

precip_df = 
  bind_rows(precip_2018, precip_2017)

combined_precip_df = 
  left_join(precip_df, month_df, by = "month") %>%
  relocate(year, month, month_name)

combined_precip_df
```

    # A tibble: 24 x 4
        year month month_name total
       <dbl> <dbl> <chr>      <dbl>
     1  2018     1 January     0.94
     2  2018     2 February    4.8 
     3  2018     3 March       2.69
     4  2018     4 April       4.69
     5  2018     5 May         9.27
     6  2018     6 June        4.77
     7  2018     7 July       10.2 
     8  2018     8 August      6.45
     9  2018     9 September  10.5 
    10  2018    10 October     2.12
    # ... with 14 more rows
…
``` r
# Read and clean the data
# Retain variables
# Convert the entry variable

transit_df = 
  read_csv("./data/NYC_Transit_Subway_Entrance_And_Exit_Data.csv") %>% 
  janitor::clean_names() %>% 
  select(line:entry, vending, ada) %>% 
  mutate(entry = recode(entry, "YES" = TRUE, "NO" = FALSE))

transit_df
```

    # A tibble: 1,868 x 19
       line  station_name station_latitude station_longitu~ route1 route2 route3
       <chr> <chr>                   <dbl>            <dbl> <chr>  <chr>  <chr> 
     1 4 Av~ 25th St                  40.7            -74.0 R      <NA>   <NA>  
     2 4 Av~ 25th St                  40.7            -74.0 R      <NA>   <NA>  
     3 4 Av~ 36th St                  40.7            -74.0 N      R      <NA>  
     4 4 Av~ 36th St                  40.7            -74.0 N      R      <NA>  
     5 4 Av~ 36th St                  40.7            -74.0 N      R      <NA>  
     6 4 Av~ 45th St                  40.6            -74.0 R      <NA>   <NA>  
     7 4 Av~ 45th St                  40.6            -74.0 R      <NA>   <NA>  
     8 4 Av~ 45th St                  40.6            -74.0 R      <NA>   <NA>  
     9 4 Av~ 45th St                  40.6            -74.0 R      <NA>   <NA>  
    10 4 Av~ 53rd St                  40.6            -74.0 R      <NA>   <NA>  
    # ... with 1,858 more rows, and 12 more variables: route4 <chr>, route5 <chr>,
    #   route6 <chr>, route7 <chr>, route8 <dbl>, route9 <dbl>, route10 <dbl>,
    #   route11 <dbl>, entrance_type <chr>, entry <lgl>, vending <chr>, ada <lgl>
…
### 2-2) Reformat Data

``` r
# Make route number and route name distinct variables

transit_tidy_df =
  transit_df %>%
  gather(key = route_number, value = route_name, route1:route11)

transit_tidy_df
```

    # A tibble: 20,548 x 10
       line  station_name station_latitude station_longitu~ entrance_type entry
       <chr> <chr>                   <dbl>            <dbl> <chr>         <lgl>
     1 4 Av~ 25th St                  40.7            -74.0 Stair         TRUE 
     2 4 Av~ 25th St                  40.7            -74.0 Stair         TRUE 
     3 4 Av~ 36th St                  40.7            -74.0 Stair         TRUE 
     4 4 Av~ 36th St                  40.7            -74.0 Stair         TRUE 
     5 4 Av~ 36th St                  40.7            -74.0 Stair         TRUE 
     6 4 Av~ 45th St                  40.6            -74.0 Stair         TRUE 
     7 4 Av~ 45th St                  40.6            -74.0 Stair         TRUE 
     8 4 Av~ 45th St                  40.6            -74.0 Stair         TRUE 
     9 4 Av~ 45th St                  40.6            -74.0 Stair         TRUE 
    10 4 Av~ 53rd St                  40.6            -74.0 Stair         TRUE 
    # ... with 20,538 more rows, and 4 more variables: vending <chr>, ada <lgl>,
    #   route_number <chr>, route_name <chr>
…
polsmonth_tidy_df =
  left_join(polsmonth_df, month_df1, by = "month") %>%
  select(-month) %>%
  relocate(year, month_name) %>%
  mutate(month_name = str_to_lower(month_name),
         president = ifelse(prez_gop !=0, "gop", "dem")
         ) %>%
  select(-prez_gop, -prez_dem, -day) %>%
  rename(month = month_name)

polsmonth_tidy_df
```

    # A tibble: 822 x 9
        year month     gov_gop sen_gop rep_gop gov_dem sen_dem rep_dem president
       <int> <chr>       <dbl>   <dbl>   <dbl>   <dbl>   <dbl>   <dbl> <chr>    
     1  1947 january        23      51     253      23      45     198 dem      
     2  1947 february       23      51     253      23      45     198 dem      
     3  1947 march          23      51     253      23      45     198 dem      
     4  1947 april          23      51     253      23      45     198 dem      
     5  1947 may            23      51     253      23      45     198 dem      
     6  1947 june           23      51     253      23      45     198 dem      
     7  1947 july           23      51     253      23      45     198 dem      
     8  1947 august         23      51     253      23      45     198 dem      
     9  1947 september      23      51     253      23      45     198 dem      
    10  1947 october        23      51     253      23      45     198 dem      
    # ... with 812 more rows
…
snp_tidy_df =
  left_join(snp_df, month_df2, by = "month") %>%
  relocate(year, month_name) %>%
  mutate(month_name = str_to_lower(month_name)) %>%
  select(-month, -day) %>%
  rename(
    month = month_name,
    close_stock_index = close
    )

snp_tidy_df
```

    # A tibble: 787 x 3
        year month    close_stock_index
       <int> <chr>                <dbl>
     1  2015 july                 2080.
     2  2015 june                 2063.
     3  2015 may                  2107.
     4  2015 april                2086.
     5  2015 march                2068.
     6  2015 february             2104.
     7  2015 january              1995.
     8  2014 december             2059.
     9  2014 november             2068.
    10  2014 october              2018.
    # ... with 777 more rows
…
unemployment_tidy_df
```

    # A tibble: 816 x 3
        year month     unemployment_rate
       <dbl> <chr>                 <dbl>
     1  1948 january                 3.4
     2  1948 feburary                3.8
     3  1948 march                   4  
     4  1948 april                   3.9
     5  1948 may                     3.5
     6  1948 june                    3.6
     7  1948 july                    3.6
     8  1948 august                  3.9
     9  1948 september               3.8
    10  1948 october                 3.7
    # ... with 806 more rows
### 3-4) Join Datasets

``` r
# Join the datasets

joined_df = 
  left_join(polsmonth_tidy_df, snp_tidy_df, by = c("year", "month"))

final_df = 
  left_join(joined_df, unemployment_tidy_df, by = c("year", "month"))

final_df
```

    # A tibble: 822 x 11
        year month gov_gop sen_gop rep_gop gov_dem sen_dem rep_dem president
       <dbl> <chr>   <dbl>   <dbl>   <dbl>   <dbl>   <dbl>   <dbl> <chr>    
     1  1947 janu~      23      51     253      23      45     198 dem      
     2  1947 febr~      23      51     253      23      45     198 dem      
     3  1947 march      23      51     253      23      45     198 dem      
     4  1947 april      23      51     253      23      45     198 dem      
     5  1947 may        23      51     253      23      45     198 dem      
     6  1947 june       23      51     253      23      45     198 dem      
     7  1947 july       23      51     253      23      45     198 dem      
     8  1947 augu~      23      51     253      23      45     198 dem      
     9  1947 sept~      23      51     253      23      45     198 dem      
    10  1947 octo~      23      51     253      23      45     198 dem      
    # ... with 812 more rows, and 2 more variables: close_stock_index <dbl>,
    #   unemployment_rate <dbl>
…
